{
    "start": "Start",
    "translateMe": "Find the perfect caregiver",
    "WHO_NEEDS_CARE": {
        "PARENT": "My Parent",
        "SPOUSE": "My Spouse",
        "GRANDPARENT": "My Grandparent",
        "FRIEND_RELATIVE": "My Friend/ Relative/ Boss",
        "ME": "Myself",
        "OTHER": "Other"
    },
    "languages": "Languages",
    "WhoNeedsCareLabel": "Who needs care?",
    "age": "Age",
    "yearsold": "years old",
    "GENDER": {
        "MALE": "Male",
        "FEMALE": "Female",
        "EITHER": "Either"
    },
    "weightRange": "Weight",
    "gender": "Gender",
    "TYPE_OF_CARE|CONDITION": {
        "CANCER": "Cancer",
        "DEMENTIA": "Dementia",
        "DIABETES": "Diabetes",
        "HEART_DISEASE": "Heart Disease",
        "HYPERTENSION": "Hypertension",
        "PARKINSONS": "Parkinson’s",
        "RECENT_FALL": "Recent Fall",
        "STROKE": "Stroke",
        "POST_SURGERY_RECOVERY": "Post-Surgery Recovery"
    },
    "TYPE_OF_CARE|NEED": {
        "COMPANIONSHIP": "Companionship",
        "ASSISTANCE_WITH_MOBILITY": "Assistance with Mobility",
        "MEDICAL_ESCORT": "Escort services (e.g. doctor's visit)",
        "MEDICATION_MANAGEMENT": "Medication Management",
        "PERSONAL_HYGIENE": "Personal Hygiene",
        "NIGHT_CARE": "Night Care",
        "POST_SURGERY_REHABILITATION": "Post-Surgery Rehabilitation"
    },
    "DEPENDENCY_SCALE": {
        "INDEPENDENT": "Independent (lives alone)",
        "PARTIALLY_DEPENDENT": "Partially Dependent (lives with someone)",
        "TOTALLY_DEPENDENT": "Totally Dependent",
        "WITH_A_FULL_TIME_HELPER": "Has a full time helper"
    },
    "MOBILITY": {
        "WHEELCHAIR": "Wheelchair",
        "BED_BOUND": "Bed-Bound",
        "FULLY_MOBILE": "Fully Mobile",
        "PARTIALLY_MOBILE": "Partially Mobile"
    },
    "DependencyScaleLabel": "Dependency Scale",
    "MobilityLabel": "Mobility",
    "Context": {
        "Term": "Translation (Engish)"
    },
    "HK_REGIONS": {
        "HONG_KONG_ISLAND": "Hong Kong Island",
        "KOWLOON": "Kowloon",
        "NEW_TERRITORIES": "New Territories",
        "ISLANDS": "Outlying Islands",
        "OTHER": "Other"
    },
    "HK_REGIONS|HONG_KONG_ISLAND": {
        "ABERDEEN": "Aberdeen",
        "ADMIRALTY": "Admiralty",
        "CAUSEWAY_BAY": "Causeway Bay",
        "CENTRAL": "Central",
        "CHAI_WAN": "Chai Wan",
        "CHUNG_HOM_KOK": "Chung Hom Kok",
        "DEEP_WATER_BAY": "Deep Water Bay",
        "FORTRESS_HILL": "Fortress Hill",
        "HAPPY_VALLEY": "Happy Valley",
        "JARDINES_LOOKOUT": "Jardine's Lookout",
        "MID_LEVELS": "Mid-Levels",
        "NORTH_POINT": "North Point",
        "NORTH_POINT_HILL": "The Peak",
        "POKFULAM": "Pok Fu Lam",
        "QUARRY_BAY": "Quarry Bay",
        "REPULSE_BAY": "Repulse Bay",
        "SAI_YING_PUN": "Sai Ying Pun",
        "SHAU_KEI_WAN": "Shau Kei Wan",
        "SHEK_O": "Shek O",
        "SHEUNG_WAN": "Sheung Wan",
        "SHOUSON_HILL": "Shouson Hill",
        "SOUTH_BAY": "South Bay",
        "STANLEY": "Stanley",
        "TAI_HANG": "Tai Hang",
        "TAI_TAM": "Tai Tam",
        "THE_PEAK": "The Peak",
        "TIN_HAU": "Tin Hau",
        "WAN_CHAI": "Wan Chai",
        "WESTERN_DISTRICT": "Western District",
        "WONG_CHUK_HANG": "Wong Chuk Hang",
        "AP_LEI_CHAU": "Ap Lei Chau",
        "BRAEMAR_HILL": "Braemar Hill",
        "KENNEDY_TOWN": "Kennedy Town",
        "SAI_WAN": "Sai Wan",
        "SAI_WAN_HO": "Sai Wan Ho",
        "TAI_KOO": "Tai Koo"
    },
    "HK_REGIONS|KOWLOON": {
        "CHEUNG_SHA_WAN": "Cheung Sha Wan",
        "DIAMOND_HILL": "Diamond Hill",
        "HO_MAN_TIN": "Ho Man Tin",
        "HUNG_HOM": "Hung Hom",
        "JORDAN": "Jordan",
        "KAI_TAK": "Kai Tak",
        "KOWLOON_BAY": "Kowloon Bay",
        "KOWLOON_CITY": "Kowloon City",
        "KOWLOON_STATION": "Kowloon Station",
        "KOWLOON_TONG": "Kowloon Tong",
        "KOWLOON_WEST": "Kowloon West",
        "KWUN_TONG": "Kwun Tong",
        "LAI_CHI_KOK": "Lai Chi Kok",
        "LAM_TIN": "Lam Tin",
        "MONGKOK": "Mongkok",
        "OLYMPIC_STATION": "Olympic Station",
        "PRINCE_EDWARD": "Prince Edward",
        "SAN_PO_KONG": "San Po Kong",
        "SHAM_SHUI_PO": "Sham Shui Po",
        "SHEK_KIP_MEI": "Shek Kip Mei",
        "TO_KWA_WAN": "To Kwa Wan",
        "TSIM_SHA_TSUI": "Tsim Sha Tsui",
        "WONG_TAI_SIN": "Wong Tai Sin",
        "YAU_MA_TEI": "Yau Ma Tei",
        "YAU_TONG": "Yau Tong",
        "AUSTIN": "Austin",
        "BEACON_HILL": "Beacon Hill",
        "CHOI_HUNG": "Choi Hung",
        "LEI_YUE_MUN": "Lei Yue Mun",
        "LOK_FU": "Lok Fu",
        "MEI_FOO": "Mei Foo",
        "TAI_KOK_TSUI": "Tai Kok Tsui",
        "TSZ_WAN_SHAN": "Tsz Wan Shan",
        "WHAMPOA": "Whampoa"
    },
    "HK_REGIONS|NEW_TERRITORIES": {
        "CLEARWATER_BAY": "Clearwater Bay",
        "FANLING": "Fanling",
        "HANG_HAU": "Hang Hau",
        "KWAI_CHUNG": "Kwai Chung",
        "MA_ON_SHAN": "Ma On Shan",
        "SAI_KUNG": "Sai Kung",
        "SHAM_TSENG": "Sham Tseng",
        "SHATIN": "Shatin",
        "SHEUNG_SHUI": "Sheung Shui",
        "TAI_PO": "Tai Po",
        "TIN_SHUI_WAI": "Tin Shui Wai",
        "TSEUNG_KWAN_O": "Tseung Kwan O",
        "TSING_YI": "Tsing Yi",
        "TSUEN_WAN": "Tsuen Wan",
        "TUEN_MUN": "Tuen Mun",
        "YUEN_LONG": "Yuen Long",
        "FO_TAN": "Fo Tan",
        "KAM_TIN": "Kam Tin",
        "KWAI_FONG": "Kwai Fong",
        "KWAI_HING": "Kwai Hing",
        "LAI_KING": "Lai King",
        "LAU_FAU_SHAN": "Lau Fau Shan",
        "SIU_LEK_YUEN": "Siu Lek Yuen",
        "TAI_MEI_TUK": "Tai Mei Tuk",
        "TAI_WAI": "Tai Wai",
        "TIU_KENG_LENG": "Tiu Keng Leng",
        "TUNG_CHUNG": "Tung Chung",
        "WU_KAI_SHA": "Wu Kai Sha"
    },
    "HK_REGIONS|ISLANDS": {
        "CHEUNG_CHAU": "Cheung Chau",
        "DISCOVERY_BAY": "Discovery Bay",
        "LAMMA_ISLAND": "Lamma Island",
        "LANTAU_ISLAND": "Lantau Island",
        "MA_WAN": "Ma Wan",
        "PENG_CHAU": "Peng Chau"
    },
    "HK_REGIONS|OTHER": {
        "OTHER": "Other"
    },
    "locationRegion": "Region",
    "locationDistict": "District",
    "addressLine1": "Address line 1",
    "addressLine2": "Address line 2",
    "CAREGIVER_CATEGORY": {
        "ENROLLED_NURSE": "Enrolled Nurse",
        "REGISTERED_NURSE": "Registered Nurse",
        "HEALTHCARE_WORKER": "Healthcare Worker",
        "OTHER": "Other",
        "ALL": "All"
    },
    "instructions": "Additional Instructions",
    "caregiverType": "Caregiver Category",
    "week": "week | weeks",
    "hour": "hour | hours",
    "close": "Close",
    "EmailValidation": "Please enter a valid email address",
    "email": "Email",
    "lastName": "Last Name",
    "select": "Select",
    "firstName": "First Name",
    "login": "Login",
    "logout": "Log out",
    "homeCareFee": "Home care fee",
    "evercareServiceFee": "Service fee",
    "creditCardFee": "Credit card fee",
    "estimatedCost": "Estimated maximum cost",
    "clearAll": "Clear All",
    "add": "Add",
    "delete": "Delete",
    "maximumNumberOfSlots": "Maximum number of time slots reached",
    "createNewTimeSlot": "Create new time slot",
    "repeatShiftCheckboxLabel": "Repeat Shift?",
    "everyDay": "Every day",
    "numberOfWeeks": "Number of weeks",
    "MONDAY": "Monday",
    "TUESDAY": "Tuesday",
    "WEDNESDAY": "Wednesday",
    "THURSDAY": "Thursday",
    "FRIDAY": "Friday",
    "SATURDAY": "Saturday",
    "SUNDAY": "Sunday",
    "fromTime": "From time",
    "toTime": "To time",
    "allDay": "24 hours",
    "selectExistingSlotHeader": "Select existing Time Slot",
    "selectExistingSlotDescription": "Click on a time slot you have created and it will added to the calendar.",
    "newJobRequestHeader": "New Job Request",
    "browse": "Browse",
    "schedule": "Schedule",
    "confirm": "Confirm",
    "createNewCareRecipientProfile": "Create Client Profile",
    "profileCompleted": "Profile completed",
    "back": "Back",
    "continue": "Continue",
    "pricing": "Pricing",
    "careseekerSignupHeader": "Contact",
    "careseekerSignupDescription": "This name will be the linked to the new account created.",
    "newJobStep1Header": "What type of caregiver do you need?",
    "cgQuizHeader": "Not sure?",
    "cgQuizDescription": "Don't know what type of caregiver you need?",
    "findOutMore": "Find out more",
    "preferredCaregivers": "Preferred Caregivers",
    "browseCaregivers": "Browse Caregivers",
    "setYourSchedule": "Set your schedule",
    "additionalInformation": "Additional Information",
    "newJobmessageToCaregiverPlaceholder": "Specifics about the patient's condition. What is expected of the caregiver? Do they need to bring lunch or dinner?",
    "messageToTheCaregiversTxtboxLabel": "Message to Caregivers",
    "priorityToPreferredCaregivers": "Prioritise my 'Favourites'",
    "setABudget": "Set a budget",
    "hourlyRateForCaregiverType": "Hourly rate ({cgType})",
    "hourlyRateDescription": "Set a budget and we will match you with caregivers within your range",
    "saveAsMuchAs": "SAVE",
    "savingsWithEvercare": "Save {savings} with Evercare",
    "bamboos": "Bamboos",
    "qhms": "QHMS",
    "careRecipientProfileCreatedNextStepMessage": "You have completed the Client Profile!",
    "newCrProfileStep1Header": "Share a few details to find your ideal caregiver",
    "newCrProfileStep2Header": "Do any of the following apply?",
    "newCrProfileStep3Header": "What care do you need?",
    "location": "Location",
    "payment": "Payment",
    "hourlyRate": "Hourly Rate",
    "step5InstructionHeading": "Additional instructions?",
    "step5InstructionFieldLabel": "Notes (Optional)",
    "step5InstructionPlaceholder": "Provide extra information about the patient's condition you would like the caregiver to know. e.g. hypertension, recent fall etc.",
    "deleteTheseScheduledTimeSlotsOnTheCalendar": "Delete these time slots on the calendar",
    "deleteSlotForThisDay": "Delete slot for this date only",
    "COUNTRIES_I18N": {
        "HONG_KONG": "Hong Kong",
        "TAIWAN": "Taiwan",
        "PHILIPPINES": "Philippines"
    },
    "chronic_illness": "Chronic Illness",
    "post_surgery_rehab": "Post-Surgery Rehab",
    "companionship": "Companionship",
    "mobility": "Mobility",
    "medication": "Medication",
    "personal_care": "Personal Care",
    "KIND_OF_CARE_QUIZ|ALL": {
        "COMPANIONSHIP": "Companionship",
        "EXERCISE": "Exercise",
        "MEDICAL_ESCORT": "Medical Escort",
        "MEDICATION_REMINDER": "Medication Reminder",
        "PERSONAL_HYGIENE": "Personal Hygiene",
        "NIGHT_CARE": "Night Care",
        "POST_SURGERY_REHABILITATION": "Post-Surgery Rehabilitation"
    },
    "KIND_OF_CARE_QUIZ|NURSE": {
        "DISEASE_MANAGEMENT": "Disease Management",
        "WOUND_CARE": "Wound Care",
        "MEDICIATION_ADMINISTRATION": "Mediciation Administration",
        "STOMA_CARE": "Stoma Care",
        "TUBE_CATHETER_CARE": "NG Tube",
        "RESPIRATORY_CARE": "Respiratory Care",
        "DIALYSIS_CARE": "Dialysis Care"
    },
    "CARE_TRAINING": "Healthcare Worker | HCW\u000b<br> (>200 training hours)",
    "DIPLOMA_IN_NURSING": "Enrolled Nurse | EN\u000b<br> (2-3 years Diploma in Nursing)",
    "BACHELOR_OF_NURSING": "Registered Nurse | RN<br>(4-5 years Bachelor of Nursing)\n",
    "CARE_TRAINING_DESCRIPTION": "For those who need basic personal care or health condition monitoring. HCW's have comprehensive training in activities of daily living: feeding, mobility, bathing, and can assist with tube feeding, wound care, and bed sores.\n",
    "DIPLOMA_IN_NURSING_DESCRIPTION": "EN’s play a similar role to an RN and contribute to a client’s care plan. Helpful for families seeking comprehensive care.",
    "BACHELOR_OF_NURSING_DESCRIPTION": "RN’s are fully trained to provide holistic patient care and have more responsibility than an EN. Helpful for families seeking extensive and delicate care.",
    "careRecipientNameLabel": "Name of care recipient",
    "theProfileWillBeSavedForFutureUse": "This profile will be saved for future use. You can edit in the Care Recipient Profiles section.",
    "preferredGenderOfCaregiver": "Preferred gender of caregiver",
    "HEALTHCARE_WORKER_DESCRIPTION": "Description for this type of caregiver",
    "ENROLLED_NURSE_DESCRIPTION": "EN’s play a similar role to an RN and contribute to a client’s care plan. Helpful for families seeking comprehensive care.",
    "REGISTERED_NURSE_DESCRIPTION": "RN’s are fully trained to provide holistic patient care and have more responsibility than an EN. Helpful for families seeking extensive and delicate care.\nDescription for this type of caregiver",
    "minimumRequiredFavouriteCaregivers": "You need at least {minimumFavouritesRequired} preferred Caregivers to enable priority.",
    "priorityToFavouritesExplanationTooltip": "We will prioritise your favourites. If they are not available or do not respond, we will find you another caregiver.",
    "allDayShiftExplanationTooltip": "Explain what does clicking All Day Shift mean",
    "selectMoreFavouriteCaregiversButton": "Select more here",
    "other": "Other",
    "pleaseConfirm": "Please confirm",
    "thisWillDeleteThisTimeSlotForThisDateConfirmation": "This home visit will be deleted for this date. Are you sure?",
    "thisWillDeleteAllOcurrencesOfThisTimeSlotInTheJob": "Click Confirm to cancel all shifts of this time slot",
    "cancel": "Cancel",
    "totalCost": "Total cost",
    "durationOfRecurrenceInWeeks": "Duration (max 4 weeks)",
    "addAcreditCard": "Add a credit card",
    "saveCard": "Save card",
    "cardsProcessedByStripe": "Cards are securely processed by Stripe.",
    "cardsChargeDescription": "The credit card will only be charged upon job confirmation.",
    "required": "Required",
    "pleaseWait": "Please wait...",
    "costBreakdown": "Cost breakdown",
    "loggingInProgressLoader": "Logging in...",
    "redirectingInProgressLoader": "Redirecting...",
    "processingJobRequestProgressLoader": "Processing Job Request...",
    "requestIsBeingProcessed": "Request processing",
    "requestIsBeingProcessedDecription": "The Job Request has been submitted and our Caregivers will start applying. We will notify you about the progress.",
    "careSeekerTerms": "By continuing you agree to our <a href=\"{termsUrl}\" target=\"_blank\">Terms of Use</a>.",
    "homeVisitsCount": "Home visit | Home visits",
    "welcome": "Welcome",
    "myCalendar": "My Calendar",
    "jobs": "Jobs",
    "theseAreTheDraftJobs": "These are your draft jobs. Click to edit and publish.",
    "draft": "Draft",
    "dontHaveAnyJobsYet": "Your do not have any jobs requests yet",
    "pending": "Pending",
    "confirmed": "Confirmed",
    "done": "Done",
    "CALENDAR": "Calendar",
    "BROWSE_CAREGIVERS": "Browse Caregivers",
    "CARE_RECIPIENT_PROFILES": "Care Recipient Profiles",
    "ACCOUNT": "Account",
    "createNew": "Create new",
    "edit": "Edit",
    "health": "Health",
    "profile": "Profile | Profiles",
    "cost": "Cost",
    "message": "Message",
    "fewerDetails": "Fewer details",
    "moreDetails": "More details",
    "numberOfShifts": "Number of shifts",
    "completed": "Completed",
    "confirmationRequired": "Confirmation Required",
    "showHomeVisits": "Show home visits",
    "hideHomeVisits": "Hide home visits",
    "browseCaregiversDescription": "Below you can browse caregiver profiles. Click so view more information or save profiles to your favourites.",
    "allCaregivers": "All",
    "favouriteCaregivers": "Favourite",
    "favouriteCaregiverPageSubheading": "Your list of favourite Caregivers. You can use this list to give priority to your favourites when creating Jobs.",
    "details": "Details",
    "reports": "Reports",
    "REPORTS": "Reports",
    "caregiverProfile": "Caregiver Profile",
    "summary": "Summary",
    "pendingVerification": "Pending",
    "verified": "Verified",
    "pendingCertificateStatusDescription": "This certificate has not be verified by the Evercare team yet",
    "verifiedCertificateStatusDescription": "Evercare has verified the validity of this certificate",
    "experience": "Experience",
    "education": "Education",
    "skillsAndExpertise": "Skills and Expertise",
    "Certifications": "Certifications",
    "account": "Account",
    "addNewCard": "Add New Card",
    "defaultPaymentMethod": "Default Payment Method",
    "update": "Update",
    "accountInfo": "Account Info",
    "paymentMethods": "Payment methods",
    "category": "Category",
    "loadMore": "Load more",
    "any": "Any",
    "filter": "Filter",
    "otherLanguages": "Other languages",
    "andXMore": "and {count} more",
    "clickToSave": "Click to save",
    "saved": "Saved",
    "noCaregiverFiltering": "Your criteria did not return any results. Please try with other filter.",
    "hello": "Hello",
    "showClientDetails": "Show client details",
    "hideClientDetails": "Hide client details",
    "priortyCaregiver": "Priority",
    "caregiverPriorityTooltipDescr": "You have been given priority to respond to this Job as a Preferred Caregiver",
    "careRecipientProfile": "Care Recipient Profile",
    "showSchedule": "Show Schedule",
    "hideSchedule": "Hide Schedule",
    "clockOutAndReport": "Clock out & Report",
    "selectAllShifts": "Select All Shifts",
    "clearAllShifts": "Clear All Shifts",
    "clickToSelectShifts": "Click to select shifts.",
    "youHaveSelectedXshifts": "You have selected {count}",
    "shift": "shift | shifts",
    "caregiverApplyToJobConfirmation": "By applying you commit to the schedule of the selected shifts and confirm that you posses the requested skills and characteristics to provide the home service. You acknowledge that lack of capacity or no-show will result in penalisation in the Evercare platform.",
    "firstVist": "first visit",
    "openJobsSubheading": "Currently open jobs that you can apply to.",
    "pendingJobsSubheading": "Jobs you have applied to and pending confirmation.",
    "confirmedJobsSubheading": "Your confirmed Jobs.",
    "nursingReport": "Nursing Report",
    "careRecipientName": "Care recipient name",
    "moreVitals": "More vitals",
    "lessVitals": "Less vitals",
    "CARE_PROCEDURE": {
        "FEEDING": "Feeding",
        "GROOMING": "Grooming",
        "BATHING": "Bathing",
        "MASSAGE": "Massage",
        "MOISTURIZE_SKIN": "Moisturize Skin",
        "PHYSICAL_THERAPY_MOVEMENT": "Physical Therapy Movement",
        "EXERCISE": "Exercise",
        "PHYSICAL_SUPPORT": "Physical Support",
        "ESCORT": "Escort",
        "TOILETING": "Toileting"
    },
    "PAIN_POSITION": {
        "WOUND": "Wound",
        "HEAD_AND_NICK": "Head and Nick",
        "CHEST_AND_LUNG": "Chest and Lung",
        "ABDOMEN": "Abdomen",
        "GROIN_AREA": "Groin Area",
        "UPPER_LIMBS": "Upper Limbs",
        "LOWER_LIMBS": "Lower Limbs"
    },
    "CLIENT_EMOTIONS": {
        "HAPPY": "Happy",
        "SAD": "Sad",
        "EXCITED": "Excited",
        "SCARED": "Scared",
        "ANGRY": "Angry"
    },
    "careProcedure": "Care Procedure",
    "vitals": "Vitals",
    "temperature": "Τemperature",
    "systolicBp": "SYSTOLIC Blood Pressure (mmHG)",
    "diastolicBp": "DIASTOLIC Blood Pressure (mmHG)",
    "pulseRate": "Pulse Rate (per minute)",
    "respirationRate": "Respiration Rate (per minute)",
    "spo2": "Spo2 (%)",
    "ELIMINATION": {
        "NORMAL": "Normal",
        "ALTERED": "Altered",
        "INCONTINENCE": "Incontinence",
        "CONSTIPATION": "Constipation",
        "STOMA": "Stoma"
    },
    "mustBeAnumberValidation": "Must be a number",
    "painLevelLabel": "Select level (1-10)",
    "painPosition": "Pain Position",
    "painLevel": "Pain Level",
    "elimination": "Elimination",
    "bowelMovement": "Bowel Movement",
    "urinationFrequency": "Urination Frequency",
    "date": "Date",
    "weight": "Weight",
    "job": "Job",
    "clientEmotion": "Client's emotion",
    "otherEmotion": "Other emotion",
    "sleepQuality": "Sleep Quality",
    "sleepQualityLabel": "Select quality level (1-10)",
    "sleepDuration": "Sleep Duration",
    "sleepDurationLabel": "Select number of hours",
    "caregiverReportCommentsHeader": "Comments",
    "caregiverReportCommentsPlaceholder": "Any comments for the home visit?",
    "submit": "Submit",
    "additionalComments": "Additional comments (optional)",
    "cgRatingCommentsPlaceholder": "Anything else you want to share?",
    "rateYourClient": "Rate your client",
    "newJobRequestDescription": "The job request with the details bellow has just been submitted.",
    "newJobRequestCaregiver": "New Job Request",
    "open": "Open",
    "createProfile": "Create Profile",
    "calendarDescriptionText": "Click on a date on the calendar to select it and schedule your home visit. You can schedule home visits for the next 4 weeks.",
    "createJobConfirmationDescription": "You are about to submit a job request. Once you provide your credit card, it will be charged once the job has been confirmed. Press 'Confirm' to proceed. ",
    "noCareRecipientProfileDescriptionInJobsPage": "As you do not have any Care Recipient profiles yet, we will start the process by creating one first.",
    "preferredCaregiverDescriptionPopup": "• Select your favourite caregiver profiles. We will notify them when you create a job.\n<br><br>\n• Pick as many preferred caregivers as possible to increase your chances of filling a job,\n<br><br>\n• If you do not select any, we will notify all caregivers of your selected category.",
    "withPreferred": "With Preferred",
    "withoutPreferred": "without preferred",
    "whySelectPreferred": "Preferred caregivers?",
    "selectPreferredCaregivers": "Select Preferred Caregivers",
    "selectPreferredCaregiversOrContinueWithout": "Pick as many caregivers as you want! Once you are done, click 'Continue'.",
    "startNow": "Start now",
    "applyToJob": "Apply to Job",
    "clockOpenAfterShiftStarts": "Clock out opens after the shift has started",
    "nicelyDone": "Nicely done!",
    "fewerFavouritesThanTheSelectedHaveAppliedForTheJob": "Fewer favourite Caregivers than the selected have applied for this job. Please review below and if you are happy to proceed click the \"Confirm\" button. Note that when you confirm your credit card will be charged.",
    "someShiftsHaveNotBeenFilled": "Some shifts on the schedule have not been filled. Please review below and if you are happy to proceed click the \"Confirm\" button. Note that when you confirm your credit card will be charged.",
    "moreThanMaximumCaregiversHaveApplied": "This job has been filled with more Caregivers than the maximum (8). Please review below and if you are happy to proceed click the \"Confirm\" button. Note that when you confirm your credit card will be charged.",
    "confirmJob": "Confirm Job",
    "cancelJob": "Cancel Job",
    "typeToSelectLanguage": "Start typing to select language",
    "marketPrice": "Market Price",
    "levelOfTraining": "Level of Training",
    "clickToSelect": "Click to select"
}